model,muLogLik,maxLoc,maxSel,maxG,maxTime,maxMig,maxSource
MODEL1,1.40573585914529,19753,0.5,NA,NA,NA,NA
MODEL2,2.19822591418572,19753,0.5,NA,NA,1e-05,2
MODEL3,2.59076205523615,19774.1578947368,0.6,0.001,5,NA,NA
MODEL4,1.66560827273201,19784.7368421053,0.2,NA,NA,1e-05,2
MODEL5,1.66452842970765,19753,0.5,7.92534536013298e-07,25,NA,NA
