model,muLogLik,maxLoc,maxSel,maxG,maxTime,maxMig,maxSource
MODEL1,1.86434376036013,2573.84210526316,0.001,NA,NA,NA,NA
MODEL2,18.7345749165386,1977,0.01,NA,NA,1e-05,5
MODEL3,23.7897976190886,2275.42105263158,0.01,0.01,100,NA,NA
MODEL4,5.40690208998678,2573.84210526316,0.001,NA,NA,1e-05,5
MODEL5,5.3932927822346,2573.84210526316,0.001,1e-04,1000,NA,NA
