model,muLogLik,maxLoc,maxSel,maxG,maxTime,maxMig,maxSource
MODEL1,0.737374896389304,2331.78947368421,0.1,NA,NA,NA,NA
MODEL2,0.964477811000097,2331.78947368421,0.12,NA,NA,1e-05,4
MODEL3,0.776124539457447,2288,0.01,0.001,500,NA,NA
MODEL4,1.27470902065016,2331.78947368421,0.2,NA,NA,1e-05,4
MODEL5,1.27905384257115,2331.78947368421,0.03,0.1,10000,NA,NA
