model,muLogLik,maxLoc,maxSel,maxG,maxTime,maxMig,maxSource
MODEL1,1.47781673857151,19784.7368421053,0.2,NA,NA,NA,NA
MODEL2,1.21286726878038,19784.7368421053,0.25,NA,NA,1e-05,6
MODEL3,1.76938024398399,19784.7368421053,0.3,1e-04,500,NA,NA
MODEL4,1.16220288753426,19795.3157894737,0.15,NA,NA,1e-05,5
MODEL5,1.89483246451004,19784.7368421053,0.2,1e-04,500,NA,NA
