model,muLogLik,maxLoc,maxSel,maxG,maxTime,maxMig,maxSource
MODEL1,2.18847162614111e-13,96286.4210526316,0.25,NA,NA,NA,NA
MODEL2,0.0262177893296894,66994.1052631579,0.25,NA,NA,1e-05,3
MODEL3,0.0257454842513454,76758.2105263158,0.13,0.1,5,NA,NA
MODEL4,0.00958886779899757,140224.894736842,0.25,NA,NA,1e-05,4
MODEL5,0.016947728505869,76758.2105263158,0.07,0.1,0,NA,NA
