model,muLogLik,maxLoc,maxSel,maxG,maxTime,maxMig,maxSource
MODEL1,-71.926136882804,19047,1e-04,NA,NA,NA,NA
MODEL2,-26.4536643304236,19047,1e-04,NA,NA,1e-05,3
MODEL3,-26.2981138160612,19047,1e-04,0.1,0,NA,NA
MODEL4,-32.6728415718554,19047,1e-04,NA,NA,1e-05,4
MODEL5,-49.5558776207562,19047,1e-04,7.92534536013298e-07,0,NA,NA
