model,muLogLik,maxLoc,maxSel,maxG,maxTime,maxMig,maxSource
MODEL1,-3.96495033065197,17777.1052631579,0.001,NA,NA,NA,NA
MODEL2,4.82418015266014,18022,0.01,NA,NA,1e-05,4
MODEL3,22.7209041792688,17977.4736842105,0.01,0.1,100,NA,NA
MODEL4,-0.383035961082635,17754.8421052632,0.001,NA,NA,1,5
MODEL5,1.76164525292768,17999.7368421053,0.01,7.54870044089443e-07,0,NA,NA
