model,muLogLik,maxLoc,maxSel,maxG,maxTime,maxMig,maxSource
MODEL1,-91.1381481360173,41813,1e-04,NA,NA,NA,NA
MODEL2,-41.7985191014144,41813,1e-04,NA,NA,0.001,3
MODEL3,-41.3027617461831,41813,1e-04,7.92534536013298e-07,0,NA,NA
MODEL4,-30.5378146618762,41813,1e-04,NA,NA,1e-05,4
MODEL5,-66.7406017331708,41813,1e-04,7.92534536013298e-07,0,NA,NA
