model,muLogLik,maxLoc,maxSel,maxG,maxTime,maxMig,maxSource
MODEL1,0.0373291375809998,5537.73684210526,0.04,NA,NA,NA,NA
MODEL2,0.160593137368832,5537.73684210526,0.04,NA,NA,1e-05,4
MODEL3,0.543997142292744,6270.36842105263,0.01,0.1,100,NA,NA
MODEL4,0.1018850661881,5537.73684210526,0.04,NA,NA,1e-05,4
MODEL5,0.131482319234073,5904.05263157895,0.01,0.01,0,NA,NA
