model,muLogLik,maxLoc,maxSel,maxG,maxTime,maxMig,maxSource
MODEL1,0.131167339910041,242.578947368421,0.15,NA,NA,NA,NA
MODEL2,0.111708329409691,242.578947368421,0.15,NA,NA,1e-05,4
MODEL3,0.434896282337513,242.578947368421,0.5,0.01,0,NA,NA
MODEL4,0.16835931645046,242.578947368421,0.2,NA,NA,1e-05,4
MODEL5,0.477353437064556,242.578947368421,0.15,1e-04,5,NA,NA
