model,muLogLik,maxLoc,maxSel,maxG,maxTime,maxMig,maxSource
MODEL1,0.112872615478867,179160,0.1,NA,NA,NA,NA
MODEL2,0.150239136803407,179160,0.13,NA,NA,1e-05,4
MODEL3,0.414770162601312,179160,0.12,1e-04,5,NA,NA
MODEL4,0.139046209863912,179160,0.11,NA,NA,1e-05,2
MODEL5,0.580357627468183,179160,0.09,1e-04,5,NA,NA
