model,muLogLik,maxLoc,maxSel,maxG,maxTime,maxMig,maxSource
MODEL1,0.298036994446414,40927,0.01,NA,NA,NA,NA
MODEL2,2.98683404866431,40901.7368421053,0.01,NA,NA,1e-05,2
MODEL3,3.84714190410116,40876.4736842105,0.01,0.01,500,NA,NA
MODEL4,1.51947454160174,40927,0.01,NA,NA,1e-05,2
MODEL5,2.1419786256592,40876.4736842105,0.01,7.92534536013298e-07,100,NA,NA
