model,muLogLik,maxLoc,maxSel,maxG,maxTime,maxMig,maxSource
MODEL1,0.769151400520718,7131.68421052632,0.4,NA,NA,NA,NA
MODEL2,0.988950950721373,7141.78947368421,0.6,NA,NA,1e-05,5
MODEL3,1.24711515646256,7141.78947368421,0.6,7.54870044089443e-07,5,NA,NA
MODEL4,0.732700077859052,7141.78947368421,0.6,NA,NA,1e-05,5
MODEL5,0.791013738713231,7131.68421052632,0.4,7.54870044089443e-07,100,NA,NA
