model,muLogLik,maxLoc,maxSel,maxG,maxTime,maxMig,maxSource
MODEL1,4.07924126193393e-06,57975,0.6,NA,NA,NA,NA
MODEL2,0.000777002085010281,57975,0.6,NA,NA,0.001,4
MODEL3,0.590021669549776,54991.7894736842,0.6,0.1,0,NA,NA
MODEL4,0.000174494721318297,49025.3684210526,0.6,NA,NA,1,2
MODEL5,0.743995078139949,54991.7894736842,0.6,0.1,0,NA,NA
