model,muLogLik,maxLoc,maxSel,maxG,maxTime,maxMig,maxSource
MODEL1,0.527305455500289,32120.3684210526,0.6,NA,NA,NA,NA
MODEL2,0.542755046817274,32120.3684210526,0.6,NA,NA,1e-05,2
MODEL3,1.04137377633042,32120.3684210526,0.4,0.1,0,NA,NA
MODEL4,0.491887241912525,32120.3684210526,0.6,NA,NA,1e-05,2
MODEL5,0.563839436505009,32120.3684210526,0.6,7.92534536013298e-07,50,NA,NA
