model,muLogLik,maxLoc,maxSel,maxG,maxTime,maxMig,maxSource
MODEL1,1.0389833900489,13618.6315789474,0.02,NA,NA,NA,NA
MODEL2,3.41866120624747,13660,0.2,NA,NA,1e-05,6
MODEL3,6.37530968228313,13556.5789473684,0.6,0.01,50,NA,NA
MODEL4,2.58305596948155,13535.8947368421,0.07,NA,NA,1e-05,6
MODEL5,4.38208617806534,13660,0.08,0.01,0,NA,NA
