model,muLogLik,maxLoc,maxSel,maxG,maxTime,maxMig,maxSource
MODEL1,0.971930978055667,2698,0.14,NA,NA,NA,NA
MODEL2,1.28449860078822,2698,0.4,NA,NA,1e-05,5
MODEL3,2.25864215398158,2698,0.5,1e-04,5,NA,NA
MODEL4,1.01409021807244,2698,0.3,NA,NA,1e-05,5
MODEL5,1.86355825825494,2698,0.3,7.54870044089443e-07,25,NA,NA
