model,muLogLik,maxLoc,maxSel,maxG,maxTime,maxMig,maxSource
MODEL1,0.47085593253918,94122.0526315789,0.5,NA,NA,NA,NA
MODEL2,0.712440658104941,94122.0526315789,0.6,NA,NA,1e-05,3
MODEL3,2.94430370881248,94122.0526315789,0.6,7.92534536013298e-07,25,NA,NA
MODEL4,0.579789250842748,94122.0526315789,0.6,NA,NA,0.001,3
MODEL5,1.69599758807577,94122.0526315789,0.5,7.92534536013298e-07,0,NA,NA
