model,muLogLik,maxLoc,maxSel,maxG,maxTime,maxMig,maxSource
MODEL1,-1.97233750245676,893.684210526316,1e-04,NA,NA,NA,NA
MODEL2,-0.908103261815424,838.736842105263,1e-04,NA,NA,1,6
MODEL3,-0.117852908417302,825,1e-04,7.54870044089443e-07,0,NA,NA
MODEL4,-0.768864027798685,893.684210526316,1e-04,NA,NA,1e-05,4
MODEL5,-0.194333181662876,825,1e-04,7.54870044089443e-07,0,NA,NA
