model,muLogLik,maxLoc,maxSel,maxG,maxTime,maxMig,maxSource
MODEL1,1.21389027195682,36342,0.001,NA,NA,NA,NA
MODEL2,3.08879247277386,36342,0.01,NA,NA,1e-05,2
MODEL3,3.76326692069451,36342,0.01,0.01,1000,NA,NA
MODEL4,2.34902506653773,36342,0.01,NA,NA,1e-05,2
MODEL5,2.45308205816766,36342,0.01,7.92534536013298e-07,500,NA,NA
