model,muLogLik,maxLoc,maxSel,maxG,maxTime,maxMig,maxSource
MODEL1,0.00195292297879348,205.894736842105,0.001,NA,NA,NA,NA
MODEL2,0.00415188231169026,205.894736842105,0.001,NA,NA,1,3
MODEL3,0.0574096382748976,205.894736842105,0.001,0.1,500,NA,NA
MODEL4,0.00583661048532775,205.894736842105,0.001,NA,NA,1,3
MODEL5,0.0121926001616387,205.894736842105,0.001,0.01,0,NA,NA
