model,muLogLik,maxLoc,maxSel,maxG,maxTime,maxMig,maxSource
MODEL1,2.06032334004935,34858.8947368421,0.001,NA,NA,NA,NA
MODEL2,4.12861548362256,34877.6315789474,0.01,NA,NA,1e-05,5
MODEL3,4.83138345331929,34858.8947368421,0.001,0.001,10000,NA,NA
MODEL4,2.43651639870942,34858.8947368421,0.001,NA,NA,1e-05,5
MODEL5,2.22832277813349,34858.8947368421,0.001,0.001,10000,NA,NA
