model,muLogLik,maxLoc,maxSel,maxG,maxTime,maxMig,maxSource
MODEL1,0.0398397520008984,71641,0.09,NA,NA,NA,NA
MODEL2,0.126089088724098,71641,0.12,NA,NA,1e-05,4
MODEL3,0.454619787120737,71552.9473684211,0.3,0.1,0,NA,NA
MODEL4,0.114143344052138,71641,0.13,NA,NA,1e-05,4
MODEL5,0.33992617113089,71464.8947368421,0.4,0.1,0,NA,NA
