model,muLogLik,maxLoc,maxSel,maxG,maxTime,maxMig,maxSource
MODEL1,-0.369846670056657,303.947368421053,0.001,NA,NA,NA,NA
MODEL2,1.37281228568241,937.526315789474,0.001,NA,NA,1e-05,3
MODEL3,8.16085041229907,791.315789473684,0.01,0.01,100,NA,NA
MODEL4,0.710504732011059,840.052631578947,0.001,NA,NA,1,2
MODEL5,1.91353166448973,352.684210526316,0.001,0.01,0,NA,NA
