model,muLogLik,maxLoc,maxSel,maxG,maxTime,maxMig,maxSource
MODEL1,-0.794843589550797,97085.8421052632,0.001,NA,NA,NA,NA
MODEL2,1.78763478787696,96903.5263157895,0.01,NA,NA,1e-05,5
MODEL3,7.7341069521546,96766.7894736842,0.01,0.1,25,NA,NA
MODEL4,-0.107866340667357,96766.7894736842,0.001,NA,NA,1e-05,4
MODEL5,0.921512931200635,96721.2105263158,1e-04,1e-04,10000,NA,NA
