model,muLogLik,maxLoc,maxSel,maxG,maxTime,maxMig,maxSource
MODEL1,1.48620675685861,65064.9473684211,0.25,NA,NA,NA,NA
MODEL2,2.45794204122522,66692.6315789474,0.15,NA,NA,0.001,6
MODEL3,3.40298090683768,66692.6315789474,0.15,1e-04,0,NA,NA
MODEL4,2.08924977096981,63437.2631578947,0.4,NA,NA,1e-05,5
MODEL5,3.15621994544779,53671.1578947368,0.6,0.001,0,NA,NA
