model,muLogLik,maxLoc,maxSel,maxG,maxTime,maxMig,maxSource
MODEL1,3.59707250635074,12698.0526315789,0.6,NA,NA,NA,NA
MODEL2,5.50528340553368,12698.0526315789,0.6,NA,NA,1e-05,4
MODEL3,11.4210997381484,12698.0526315789,0.6,1e-04,0,NA,NA
MODEL4,3.74993350448963,12698.0526315789,0.6,NA,NA,1e-05,4
MODEL5,6.42543600885171,12698.0526315789,0.6,7.54870044089443e-07,5,NA,NA
