model,muLogLik,maxLoc,maxSel,maxG,maxTime,maxMig,maxSource
MODEL1,-0.0824900898674066,1710.47368421053,0.001,NA,NA,NA,NA
MODEL2,0.301780692985432,1735,1e-04,NA,NA,1e-05,2
MODEL3,0.756986168443036,1710.47368421053,0.001,0.001,100,NA,NA
MODEL4,0.393942475295812,1514.26315789474,0.001,NA,NA,1e-05,4
MODEL5,0.835503849661304,1465.21052631579,0.001,0.1,1e+06,NA,NA
