model,muLogLik,maxLoc,maxSel,maxG,maxTime,maxMig,maxSource
MODEL1,3.21100402689666,11224,0.6,NA,NA,NA,NA
MODEL2,3.16474624880355,11224,0.6,NA,NA,1e-05,4
MODEL3,5.27466595186025,11224,0.6,7.54870044089443e-07,25,NA,NA
MODEL4,3.33130363073112,11224,0.6,NA,NA,0.001,4
MODEL5,5.11189124163349,11224,0.6,7.54870044089443e-07,5,NA,NA
