model,muLogLik,maxLoc,maxSel,maxG,maxTime,maxMig,maxSource
MODEL1,-0.100118011337291,11368.9473684211,0.001,NA,NA,NA,NA
MODEL2,1.12554154149111,11368.9473684211,0.001,NA,NA,1e-05,4
MODEL3,1.61008326361784,11368.9473684211,0.001,0.01,1000,NA,NA
MODEL4,0.730014110491567,11368.9473684211,0.001,NA,NA,1e-05,2
MODEL5,1.09867421547384,11368.9473684211,0.001,1e-04,1000,NA,NA
