model,muLogLik,maxLoc,maxSel,maxG,maxTime,maxMig,maxSource
MODEL1,4.97228162286866,75189,0.1,NA,NA,NA,NA
MODEL2,8.02404592207702,75189,0.13,NA,NA,1e-05,5
MODEL3,7.16029410483907,75189,0.11,7.54870044089443e-07,25,NA,NA
MODEL4,5.44602116913317,75189,0.11,NA,NA,1e-05,5
MODEL5,5.07112821078464,75189,0.11,7.54870044089443e-07,100,NA,NA
