model,muLogLik,maxLoc,maxSel,maxG,maxTime,maxMig,maxSource
MODEL1,-53.395932214618,2829,1e-04,NA,NA,NA,NA
MODEL2,-21.1853429511289,2829,1e-04,NA,NA,1e-05,4
MODEL3,-21.0515718097243,2829,1e-04,0.1,0,NA,NA
MODEL4,-19.4042904712989,2829,1e-04,NA,NA,1e-05,6
MODEL5,-36.6556996292726,2829,1e-04,7.54870044089443e-07,0,NA,NA
