model,muLogLik,maxLoc,maxSel,maxG,maxTime,maxMig,maxSource
MODEL1,0.0878388751669206,53521.2631578947,0.25,NA,NA,NA,NA
MODEL2,0.192135386479794,53394.2105263158,0.13,NA,NA,1e-05,2
MODEL3,0.177675869474868,53394.2105263158,0.11,1e-04,0,NA,NA
MODEL4,0.170340031651611,53521.2631578947,0.3,NA,NA,1e-05,2
MODEL5,0.117178182914549,53648.3157894737,0.4,7.92534536013298e-07,0,NA,NA
