model,muLogLik,maxLoc,maxSel,maxG,maxTime,maxMig,maxSource
MODEL1,2.00429527817072,74245.7368421053,0.12,NA,NA,NA,NA
MODEL2,2.00372458179908,74060.4736842105,0.6,NA,NA,1e-05,2
MODEL3,4.73259799923782,74431,0.6,0.01,0,NA,NA
MODEL4,2.47409675647902,74245.7368421053,0.13,NA,NA,1e-05,2
MODEL5,2.53068282988912,74245.7368421053,0.13,7.92534536013298e-07,25,NA,NA
