model,muLogLik,maxLoc,maxSel,maxG,maxTime,maxMig,maxSource
MODEL1,1.13934330213757,64311.8947368421,0.06,NA,NA,NA,NA
MODEL2,1.66197398401861,65129.5263157895,0.08,NA,NA,1e-05,5
MODEL3,3.21304321264197,65129.5263157895,0.6,0.001,0,NA,NA
MODEL4,1.25977870130478,65129.5263157895,0.07,NA,NA,1e-05,5
MODEL5,1.28143660657154,65129.5263157895,0.07,7.54870044089443e-07,50,NA,NA
