model,muLogLik,maxLoc,maxSel,maxG,maxTime,maxMig,maxSource
MODEL1,-62.1053598272005,86,1e-04,NA,NA,NA,NA
MODEL2,-28.2699457318954,86,1e-04,NA,NA,0.001,4
MODEL3,-28.2026651896656,86,1e-04,0.1,0,NA,NA
MODEL4,-23.0496774587826,86,1e-04,NA,NA,1e-05,6
MODEL5,-46.6829958831068,86,1e-04,7.54870044089443e-07,0,NA,NA
