model,muLogLik,maxLoc,maxSel,maxG,maxTime,maxMig,maxSource
MODEL1,-12.2291214610911,1351,1e-04,NA,NA,NA,NA
MODEL2,2.64500430837009,1234,1e-04,NA,NA,1e-05,2
MODEL3,3.01619604588437,1234,1e-04,0.1,10000,NA,NA
MODEL4,-6.2907651173962,1234,1e-04,NA,NA,1e-05,3
MODEL5,-5.90310631246811,1234,1e-04,7.92534536013298e-07,10000,NA,NA
