model,muLogLik,maxLoc,maxSel,maxG,maxTime,maxMig,maxSource
MODEL1,0.344390760668165,341.473684210526,0.03,NA,NA,NA,NA
MODEL2,0.856761798005681,341.473684210526,0.03,NA,NA,1e-05,2
MODEL3,0.73361959314496,577.947368421053,0.02,0.01,500,NA,NA
MODEL4,0.71456349905863,341.473684210526,0.03,NA,NA,1e-05,2
MODEL5,0.56132671888318,341.473684210526,0.03,7.92534536013298e-07,100,NA,NA
