model,muLogLik,maxLoc,maxSel,maxG,maxTime,maxMig,maxSource
MODEL1,-211.028487008599,114793,1e-04,NA,NA,NA,NA
MODEL2,-94.8534910143523,114793,1e-04,NA,NA,1e-05,3
MODEL3,-62.8999397706718,107195.526315789,1e-04,7.92534536013298e-07,10000,NA,NA
MODEL4,-66.8079040592481,114793,1e-04,NA,NA,1e-05,4
MODEL5,-90.7020911866857,114793,1e-04,7.92534536013298e-07,0,NA,NA
