model,muLogLik,maxLoc,maxSel,maxG,maxTime,maxMig,maxSource
MODEL1,-2.99916875412946,111322.684210526,1e-04,NA,NA,NA,NA
MODEL2,-1.32962715774594,111322.684210526,1e-04,NA,NA,1,4
MODEL3,-0.589326824004402,111326.736842105,1e-04,7.54870044089443e-07,0,NA,NA
MODEL4,-1.1900728977961,111322.684210526,1e-04,NA,NA,1,4
MODEL5,-0.996832692051346,111334.842105263,1e-04,7.54870044089443e-07,1e+06,NA,NA
