model,muLogLik,maxLoc,maxSel,maxG,maxTime,maxMig,maxSource
MODEL1,-336.419852463077,168,1e-04,NA,NA,NA,NA
MODEL2,-144.961825310915,168,1e-04,NA,NA,0.001,4
MODEL3,-143.498964646559,168,1e-04,0.1,0,NA,NA
MODEL4,-133.300264100801,168,1e-04,NA,NA,1e-05,6
MODEL5,-247.247951810457,168,1e-04,7.54870044089443e-07,0,NA,NA
