model,muLogLik,maxLoc,maxSel,maxG,maxTime,maxMig,maxSource
MODEL1,1.03701931233374,618,0.03,NA,NA,NA,NA
MODEL2,1.6787484782784,618,0.04,NA,NA,1e-05,5
MODEL3,3.71904640298492,618,0.08,0.001,100,NA,NA
MODEL4,1.28357336138044,618,0.04,NA,NA,1e-05,5
MODEL5,1.65057314020004,618,0.04,7.54870044089443e-07,100,NA,NA
