model,muLogLik,maxLoc,maxSel,maxG,maxTime,maxMig,maxSource
MODEL1,7.80092262542974,80292.6842105263,0.01,NA,NA,NA,NA
MODEL2,25.3344477733775,80292.6842105263,0.02,NA,NA,1e-05,2
MODEL3,25.4536075958198,80292.6842105263,0.02,0.001,0,NA,NA
MODEL4,14.6010405793444,80292.6842105263,0.01,NA,NA,1,3
MODEL5,14.6553892466135,80292.6842105263,0.01,1e-04,0,NA,NA
