model,muLogLik,maxLoc,maxSel,maxG,maxTime,maxMig,maxSource
MODEL1,0.0548843531132832,1518,0.6,NA,NA,NA,NA
MODEL2,0.224029880182405,1282,0.6,NA,NA,0.001,4
MODEL3,0.198403057440072,1518,0.6,7.92534536013298e-07,0,NA,NA
MODEL4,0.189007693843848,1518,0.6,NA,NA,1e-05,4
MODEL5,0.232922468297363,1518,0.13,0.1,500,NA,NA
