model,muLogLik,maxLoc,maxSel,maxG,maxTime,maxMig,maxSource
MODEL1,4.05728195596321,4363.26315789474,1e-04,NA,NA,NA,NA
MODEL2,16.9946499752773,4285.36842105263,0.01,NA,NA,0.001,2
MODEL3,16.6008174749865,4295.1052631579,0.01,1e-04,0,NA,NA
MODEL4,7.54301605675336,4295.1052631579,0.01,NA,NA,0.001,2
MODEL5,7.25426297230757,4285.36842105263,0.01,7.92534536013298e-07,5,NA,NA
