model,muLogLik,maxLoc,maxSel,maxG,maxTime,maxMig,maxSource
MODEL1,1.43248270672282,67674.8947368421,0.5,NA,NA,NA,NA
MODEL2,3.23068688768952,67674.8947368421,0.6,NA,NA,0.1,4
MODEL3,5.28711243913507,67674.8947368421,0.6,7.92534536013298e-07,0,NA,NA
MODEL4,2.35854576119058,67674.8947368421,0.6,NA,NA,0.001,3
MODEL5,3.40695277324943,67674.8947368421,0.4,1e-04,0,NA,NA
