model,muLogLik,maxLoc,maxSel,maxG,maxTime,maxMig,maxSource
MODEL1,-0.57259081725131,887,1e-04,NA,NA,NA,NA
MODEL2,0.331361385208527,887,0.001,NA,NA,1,4
MODEL3,1.00959160788001,887,0.001,0.001,0,NA,NA
MODEL4,0.0542599127360944,887,1e-04,NA,NA,1,2
MODEL5,0.510396791904731,887,1e-04,0.01,0,NA,NA
