model,muLogLik,maxLoc,maxSel,maxG,maxTime,maxMig,maxSource
MODEL1,5.33251167979643e-05,721.736842105263,0.001,NA,NA,NA,NA
MODEL2,0.0245425676446786,497.842105263158,0.001,NA,NA,1e-05,5
MODEL3,0.0656488481824653,497.842105263158,0.001,7.54870044089443e-07,0,NA,NA
MODEL4,0.00164456987510846,721.736842105263,0.001,NA,NA,1e-05,4
MODEL5,0.00248119003640852,535.157894736842,1e-04,0.1,1e+06,NA,NA
