model,muLogLik,maxLoc,maxSel,maxG,maxTime,maxMig,maxSource
MODEL1,-2.62234542860588,128.631578947368,1e-04,NA,NA,NA,NA
MODEL2,-1.07601034744582,128.631578947368,1e-04,NA,NA,1e-05,2
MODEL3,-0.0418606753073881,68.4210526315789,0.001,0.1,0,NA,NA
MODEL4,-0.851834717679257,150.526315789474,1e-04,NA,NA,1,3
MODEL5,-0.630587143522249,150.526315789474,1e-04,0.001,0,NA,NA
