model,muLogLik,maxLoc,maxSel,maxG,maxTime,maxMig,maxSource
MODEL1,3.57694144466525,706.736842105263,0.6,NA,NA,NA,NA
MODEL2,4.60390192896955,706.736842105263,0.6,NA,NA,1e-05,5
MODEL3,13.5092962600019,942.526315789474,0.6,0.001,0,NA,NA
MODEL4,2.85488991909914,677.263157894737,0.6,NA,NA,1e-05,5
MODEL5,6.66275547729734,795.157894736842,0.07,7.54870044089443e-07,500,NA,NA
