model,muLogLik,maxLoc,maxSel,maxG,maxTime,maxMig,maxSource
MODEL1,-0.133617844996401,31441.5263157895,1e-04,NA,NA,NA,NA
MODEL2,0.0666686084210056,31441.5263157895,1e-04,NA,NA,1e-05,2
MODEL3,0.17919404126614,31529.6315789474,0.001,1e-04,0,NA,NA
MODEL4,0.0268196605168654,31441.5263157895,1e-04,NA,NA,1,3
MODEL5,0.125396357577931,31441.5263157895,1e-04,0.001,0,NA,NA
