model,muLogLik,maxLoc,maxSel,maxG,maxTime,maxMig,maxSource
MODEL1,-0.188131739261189,12273.6842105263,1e-04,NA,NA,NA,NA
MODEL2,-0.0532009525977458,12273.6842105263,1e-04,NA,NA,1e-05,2
MODEL3,0.0570945099313974,12273.6842105263,1e-04,0.1,10000,NA,NA
MODEL4,-0.0305739420907571,12273.6842105263,1e-04,NA,NA,1e-05,2
MODEL5,0.0675396882475241,12352.3684210526,1e-04,0.1,1e+06,NA,NA
