model,muLogLik,maxLoc,maxSel,maxG,maxTime,maxMig,maxSource
MODEL1,0.763954811202896,3878.57894736842,0.6,NA,NA,NA,NA
MODEL2,1.05452393079987,3878.57894736842,0.6,NA,NA,0.001,3
MODEL3,1.50202122292296,3878.57894736842,0.6,7.92534536013298e-07,0,NA,NA
MODEL4,0.979862659120812,3878.57894736842,0.6,NA,NA,0.001,3
MODEL5,1.13017931571765,3878.57894736842,0.6,7.92534536013298e-07,0,NA,NA
