model,muLogLik,maxLoc,maxSel,maxG,maxTime,maxMig,maxSource
MODEL1,1.82413071590397,46894.7368421053,0.6,NA,NA,NA,NA
MODEL2,2.45712853156139,46894.7368421053,0.6,NA,NA,0.001,2
MODEL3,5.10780974485877,46894.7368421053,0.3,0.1,0,NA,NA
MODEL4,1.86191596582567,46894.7368421053,0.6,NA,NA,1e-05,2
MODEL5,2.88604127000109,46894.7368421053,0.6,9.31641141769696e-07,0,NA,NA
