model,muLogLik,maxLoc,maxSel,maxG,maxTime,maxMig,maxSource
MODEL1,8.44887926713736,22921.6315789474,0.6,NA,NA,NA,NA
MODEL2,11.9779666850945,22921.6315789474,0.6,NA,NA,1,2
MODEL3,59.6194088554381,22921.6315789474,0.5,0.1,0,NA,NA
MODEL4,8.54156565827113,22921.6315789474,0.6,NA,NA,1e-05,2
MODEL5,36.9952211956627,22921.6315789474,0.6,0.1,0,NA,NA
