model,muLogLik,maxLoc,maxSel,maxG,maxTime,maxMig,maxSource
MODEL1,49.5235916603736,90315.7894736842,0.4,NA,NA,NA,NA
MODEL2,74.800018143786,90315.7894736842,0.4,NA,NA,1,2
MODEL3,315.616135287546,88041.5789473684,0.5,0.1,5,NA,NA
MODEL4,59.620976028297,90315.7894736842,0.4,NA,NA,0.5,2
MODEL5,118.149184155259,88041.5789473684,0.5,0.1,0,NA,NA
