model,muLogLik,maxLoc,maxSel,maxG,maxTime,maxMig,maxSource
MODEL1,1.24330767903302e-10,4905,0.6,NA,NA,NA,NA
MODEL2,6.5058785310157e-07,8310.63157894737,0.6,NA,NA,1,6
MODEL3,0.0280414377107263,8310.63157894737,0.6,0.1,0,NA,NA
MODEL4,1.32484956338885e-10,4905,0.6,NA,NA,1e-05,5
MODEL5,0.245876209750492,4905,0.6,0.1,100,NA,NA
