model,muLogLik,maxLoc,maxSel,maxG,maxTime,maxMig,maxSource
MODEL1,5.3558377115337e-05,13610,0.15,NA,NA,NA,NA
MODEL2,0.0462789882856924,13610,0.3,NA,NA,1,1
MODEL3,0.0503294754390609,13610,0.3,9.58143195139275e-07,0,NA,NA
MODEL4,0.00485200262898076,13610,0.2,NA,NA,1,1
MODEL5,0.0130653219607538,13610,0.2,9.58143195139275e-07,0,NA,NA
