model,muLogLik,maxLoc,maxSel,maxG,maxTime,maxMig,maxSource
MODEL1,-8.89792373413483,582.947368421053,1e-04,NA,NA,NA,NA
MODEL2,-1.82207048726247,582.947368421053,1e-04,NA,NA,1e-05,5
MODEL3,3.01903457474705,760.894736842105,1e-04,0.1,0,NA,NA
MODEL4,-5.56804655068058,582.947368421053,1e-04,NA,NA,1e-05,5
MODEL5,-2.47997406130066,582.947368421053,1e-04,0.001,0,NA,NA
