model,muLogLik,maxLoc,maxSel,maxG,maxTime,maxMig,maxSource
MODEL1,14.511910514561,6913.15789473684,0.6,NA,NA,NA,NA
MODEL2,15.2042288786819,6851.57894736842,0.6,NA,NA,1e-05,4
MODEL3,25.3950991254018,6913.15789473684,0.6,1.05814096624495e-06,25,NA,NA
MODEL4,14.6882824418452,6913.15789473684,0.6,NA,NA,1e-05,4
MODEL5,27.0144703778424,6913.15789473684,0.6,1.05814096624495e-06,0,NA,NA
