model,muLogLik,maxLoc,maxSel,maxG,maxTime,maxMig,maxSource
MODEL1,-0.525431594000992,100061.578947368,0.001,NA,NA,NA,NA
MODEL2,2.34150440954968,100049,0.02,NA,NA,1,1
MODEL3,3.65543705832228,100049,0.03,9.56359712390756e-07,0,NA,NA
MODEL4,-0.00879431532401043,100049,1e-04,NA,NA,1e-05,3
MODEL5,0.552743008078536,100074.157894737,0.001,0.1,0,NA,NA
