model,muLogLik,maxLoc,maxSel,maxG,maxTime,maxMig,maxSource
MODEL1,1.22497567645041e-12,86631,0.6,NA,NA,NA,NA
MODEL2,2.59148391990038e-07,86631,0.6,NA,NA,0.1,4
MODEL3,0.029752279342749,86631,0.6,0.1,0,NA,NA
MODEL4,3.01270119962282e-12,86631,0.6,NA,NA,1e-05,5
MODEL5,0.0116095904290077,86631,0.5,0.1,0,NA,NA
