model,muLogLik,maxLoc,maxSel,maxG,maxTime,maxMig,maxSource
MODEL1,-1.24327271516568,237.684210526316,1e-04,NA,NA,NA,NA
MODEL2,0.0532550479445895,249.263157894737,1e-04,NA,NA,1e-05,4
MODEL3,0.934347889029831,260.842105263158,0.001,0.1,0,NA,NA
MODEL4,-0.656016754878944,237.684210526316,1e-04,NA,NA,1e-05,4
MODEL5,-0.40997608588936,237.684210526316,1e-04,0.01,0,NA,NA
