model,muLogLik,maxLoc,maxSel,maxG,maxTime,maxMig,maxSource
MODEL1,3.92177710970327,4306,0.6,NA,NA,NA,NA
MODEL2,5.47311192001926,4306,0.6,NA,NA,0.1,1
MODEL3,23.3694469931088,4306,0.3,0.1,5,NA,NA
MODEL4,4.69605971742869,4306,0.6,NA,NA,0.001,1
MODEL5,19.4158101506951,4306,0.6,0.1,0,NA,NA
