model,muLogLik,maxLoc,maxSel,maxG,maxTime,maxMig,maxSource
MODEL1,287.997979018869,70605.2105263158,0.6,NA,NA,NA,NA
MODEL2,374.078461180839,70605.2105263158,0.6,NA,NA,1,6
MODEL3,509.544092962846,83768.1578947368,0.3,0.1,5,NA,NA
MODEL4,287.997979018869,70605.2105263158,0.6,NA,NA,1e-05,2
MODEL5,303.81796880698,70605.2105263158,0.6,1.03370783419602e-06,0,NA,NA
