model,muLogLik,maxLoc,maxSel,maxG,maxTime,maxMig,maxSource
MODEL1,378.423115613931,1728.94736842105,0.02,NA,NA,NA,NA
MODEL2,465.678047567543,1728.94736842105,0.02,NA,NA,1,5
MODEL3,783.753747259334,2048.15789473684,0.6,0.1,0,NA,NA
MODEL4,378.423115613931,1728.94736842105,0.02,NA,NA,1e-05,2
MODEL5,378.451429060037,1728.94736842105,0.03,1.03370783419602e-06,0,NA,NA
