model,muLogLik,maxLoc,maxSel,maxG,maxTime,maxMig,maxSource
MODEL1,35.97716174365,737.368421052632,0.01,NA,NA,NA,NA
MODEL2,55.5124008371456,737.368421052632,0.01,NA,NA,0.001,1
MODEL3,222.700744293603,1753.42105263158,0.04,0.1,25,NA,NA
MODEL4,47.2592585125973,737.368421052632,0.01,NA,NA,1,2
MODEL5,161.090699075508,2092.10526315789,0.12,0.1,0,NA,NA
