model,muLogLik,maxLoc,maxSel,maxG,maxTime,maxMig,maxSource
MODEL1,126.570970745195,20165.1052631579,0.001,NA,NA,NA,NA
MODEL2,163.151280503972,20165.1052631579,0.001,NA,NA,1,6
MODEL3,163.421726847279,20169,0.01,0.01,0,NA,NA
MODEL4,146.010441951589,20165.1052631579,0.001,NA,NA,1,2
MODEL5,146.007570725874,20165.1052631579,0.001,0.001,0,NA,NA
