model,muLogLik,maxLoc,maxSel,maxG,maxTime,maxMig,maxSource
MODEL1,112.760698766249,51515,0.6,NA,NA,NA,NA
MODEL2,158.539484401288,51515,0.6,NA,NA,0.5,5
MODEL3,200.778521759908,51515,0.6,0.1,0,NA,NA
MODEL4,112.760698766249,51515,0.6,NA,NA,1e-05,2
MODEL5,427.731896183669,51515,0.6,1.03370783419602e-06,0,NA,NA
