model,muLogLik,maxLoc,maxSel,maxG,maxTime,maxMig,maxSource
MODEL1,199.099793562493,3075.31578947368,0.5,NA,NA,NA,NA
MODEL2,256.076053538158,3075.31578947368,0.5,NA,NA,0.1,2
MODEL3,1210.53389567919,7171,0.6,0.1,0,NA,NA
MODEL4,227.059564089386,3075.31578947368,0.5,NA,NA,0.1,2
MODEL5,414.884313344748,6225.84210526316,0.4,0.1,5,NA,NA
