model,muLogLik,maxLoc,maxSel,maxG,maxTime,maxMig,maxSource
MODEL1,0.410650024885563,29077.0526315789,0.13,NA,NA,NA,NA
MODEL2,0.605293744096306,29077.0526315789,0.2,NA,NA,0.001,6
MODEL3,1.29718094358902,29045.7894736842,0.2,0.1,0,NA,NA
MODEL4,0.457461590854962,29077.0526315789,0.13,NA,NA,1e-05,2
MODEL5,1.18428594312675,29038.8421052632,0.3,0.1,0,NA,NA
