model,muLogLik,maxLoc,maxSel,maxG,maxTime,maxMig,maxSource
MODEL1,1.60292557980541,1702.10526315789,0.01,NA,NA,NA,NA
MODEL2,2.53139157088598,1702.10526315789,0.01,NA,NA,1e-05,1
MODEL3,2.82323178974505,2105,0.02,0.1,25,NA,NA
MODEL4,1.72477907590204,1702.10526315789,0.01,NA,NA,1e-05,1
MODEL5,1.7972882073856,1782.68421052632,0.001,1e-04,1e+06,NA,NA
