model,muLogLik,maxLoc,maxSel,maxG,maxTime,maxMig,maxSource
MODEL1,-23.6434338502132,2811.21052631579,1e-04,NA,NA,NA,NA
MODEL2,-7.05099699094269,2811.21052631579,1e-04,NA,NA,1e-05,6
MODEL3,-2.82002062612557,2811.21052631579,1e-04,9.58143195139275e-07,0,NA,NA
MODEL4,-7.1854148906855,2799,1e-04,NA,NA,1e-05,6
MODEL5,-6.4481392355837,2811.21052631579,1e-04,9.58143195139275e-07,0,NA,NA
