model,muLogLik,maxLoc,maxSel,maxG,maxTime,maxMig,maxSource
MODEL1,75.5239044804035,882.842105263158,0.001,NA,NA,NA,NA
MODEL2,118.332073322759,882.842105263158,0.001,NA,NA,1,6
MODEL3,120.63326015841,882.842105263158,0.001,0.001,0,NA,NA
MODEL4,75.5239044804035,882.842105263158,0.001,NA,NA,1e-05,2
MODEL5,78.0609096770014,882.842105263158,0.001,0.001,0,NA,NA
