model,muLogLik,maxLoc,maxSel,maxG,maxTime,maxMig,maxSource
MODEL1,19.8817144578245,1943.84210526316,0.6,NA,NA,NA,NA
MODEL2,22.5878456174971,1943.84210526316,0.6,NA,NA,1e-05,6
MODEL3,49.5496235368314,858.157894736842,0.5,0.1,0,NA,NA
MODEL4,20.0446903612094,1943.84210526316,0.6,NA,NA,1e-05,5
MODEL5,100.613971511248,2185.1052631579,0.6,0.1,0,NA,NA
