model,muLogLik,maxLoc,maxSel,maxG,maxTime,maxMig,maxSource
MODEL1,0.975475845769948,165,0.02,NA,NA,NA,NA
MODEL2,9.21825739633021,250.263157894737,0.5,NA,NA,1,2
MODEL3,33.269732807937,264.473684210526,0.6,0.1,0,NA,NA
MODEL4,3.21260415330328,165,0.02,NA,NA,1,1
MODEL5,5.76566320368735,179.210526315789,0.2,0.1,0,NA,NA
