model,muLogLik,maxLoc,maxSel,maxG,maxTime,maxMig,maxSource
MODEL1,64.6775564757435,111970.684210526,0.6,NA,NA,NA,NA
MODEL2,108.668427695703,111970.684210526,0.6,NA,NA,1,2
MODEL3,355.277558334086,111970.684210526,0.5,0.1,0,NA,NA
MODEL4,83.010871555961,111970.684210526,0.6,NA,NA,1,2
MODEL5,175.41131935964,82552.3684210526,0.6,0.1,5,NA,NA
