model,muLogLik,maxLoc,maxSel,maxG,maxTime,maxMig,maxSource
MODEL1,68.5868582742316,1170,0.02,NA,NA,NA,NA
MODEL2,90.6611521601442,1170,0.02,NA,NA,1,2
MODEL3,390.004539880718,499.263157894737,0.03,0.1,0,NA,NA
MODEL4,80.7274487631074,1170,0.02,NA,NA,1,2
MODEL5,277.5808158828,611.052631578947,0.2,0.1,0,NA,NA
