model,muLogLik,maxLoc,maxSel,maxG,maxTime,maxMig,maxSource
MODEL1,-0.8193190055285,151891.368421053,0.001,NA,NA,NA,NA
MODEL2,0.535793566146364,151891.368421053,0.001,NA,NA,1e-05,3
MODEL3,0.879739445039569,151771.631578947,1e-04,1e-04,0,NA,NA
MODEL4,0.360627657965101,151891.368421053,0.001,NA,NA,1,2
MODEL5,0.668384435333776,151891.368421053,0.001,1e-04,0,NA,NA
