model,muLogLik,maxLoc,maxSel,maxG,maxTime,maxMig,maxSource
MODEL1,-0.436737005456939,12205,1e-04,NA,NA,NA,NA
MODEL2,-0.0389444102594098,12205,1e-04,NA,NA,1e-05,5
MODEL3,0.490260697770952,12030.6842105263,0.001,0.1,0,NA,NA
MODEL4,0.0196242881177284,12205,1e-04,NA,NA,0.001,2
MODEL5,0.209329620245279,12205,1e-04,0.01,0,NA,NA
